{
    "baseUrl": "http://localhost:8000",
    "viewportWidth": 1920,
    "viewportHeight": 1080,
    "requestTimeout": 30000,
    "responseTimeout": 30000,
    "reporter": "mochawesome",
    "reporterOptions": {
        "reportDir": "cypress/report",
        "overwrite": false,
        "html": false,
        "json": true
    }
}
